[
    {
        "name": "Courier Corporation",
        "totalItems": 222,
        "allBooksLink": "https://books.google.com/books?q=Courier+Corporation",
        "buyLink": "https://play.google.com/store/books/details?id=bUAwAQAAMAAJ&rdid=book-bUAwAQAAMAAJ&rdot=1&source=gbs_api",
        "averageRating": 4.4,
        "imageLink": "https://www.uml.edu/Images/logo_tcm18-196751.svg",
        "country": "UK"
    },
    {
        "name": "Delacorte Press",
        "totalItems": 0,
        "allBooksLink": "https://books.google.com/books?q=Delacorte+Press",
        "buyLink": "Unavailable on Google Play Store",
        "averageRating": 4.5,
        "imageLink": "https://tse2.mm.bing.net/th/id/OIP.KeZmul8Hr12fZaOUKk7ATgHaGb?w=140&h=139&c=7&r=0&o=5&pid=1.7",
        "country": "USA"
    },
    {
        "name": "Univ of California Press",
        "totalItems": 168,
        "allBooksLink": "https://books.google.com/books?q=Univ+of+California+Press",
        "buyLink": "Unavailable on Google Play Store",
        "averageRating": 1.0,
        "imageLink": "https://tse3.mm.bing.net/th/id/OIP.0Zn8r2_hYdXhoRijcWjfuwHaHa?w=155&h=180&c=7&r=0&o=5&pid=1.7",
        "country": "USA"
    },
    {
        "name": "eBookIt.com",
        "totalItems": 200,
        "allBooksLink": "https://books.google.com/books?q=eBookIt.com",
        "buyLink": "https://play.google.com/store/books/details?id=4ZNc23oZgTYC&rdid=book-4ZNc23oZgTYC&rdot=1&source=gbs_api",
        "averageRating": 4.1,
        "imageLink": "https://tse4.mm.bing.net/th/id/OIP.th7mdmNosBj8oRuNH0fhUQHaHa?w=147&h=180&c=7&r=0&o=5&pid=1.7",
        "country": "USA"
    },
    {
        "name": "Race Point Publishing",
        "totalItems": 54,
        "allBooksLink": "https://books.google.com/books?q=Race+Point+Publishing",
        "buyLink": "https://play.google.com/store/books/details?id=MkP1DQAAQBAJ&rdid=book-MkP1DQAAQBAJ&rdot=1&source=gbs_api",
        "averageRating": 0,
        "imageLink": "https://encrypted-tbn0.gstatic.com/images?q=tbn:ANd9GcSPzS3jsLMd_1NOFSq6_7Iw_qISkQa1-23pjw&s",
        "country": "USA"
    },
    {
        "name": "University of Alberta",
        "totalItems": 346,
        "allBooksLink": "https://books.google.com/books?q=University+of+Alberta",
        "buyLink": "Unavailable on Google Play Store",
        "averageRating": 4.4,
        "imageLink": "https://tse4.mm.bing.net/th/id/OIP.fShUQGQjYpcM9s6r7QelRAHaBv?w=283&h=180&c=7&r=0&o=5&pid=1.7",
        "country": "UK"
    },
    {
        "name": "Sterling Publishing Company, Inc.",
        "totalItems": 391,
        "allBooksLink": "https://books.google.com/books?q=Sterling+Publishing+Company,+Inc.",
        "buyLink": "Unavailable on Google Play Store",
        "averageRating": 4.8,
        "imageLink": "https://tse2.mm.bing.net/th/id/OIP.JEely5x0wFhW6qGe4Jb1HwAAAA?w=252&h=85&c=7&r=0&o=5&pid=1.7",
        "country": "USA"
    },
    {
        "name": "Doubleday Books",
        "totalItems": 197,
        "allBooksLink": "https://books.google.com/books?q=Doubleday+Books",
        "buyLink": "Unavailable on Google Play Store",
        "averageRating": 4.2,
        "imageLink": "https://tse3.mm.bing.net/th/id/OIP.3-iHNcMb6hkHuz1isrwqNwHaIY?w=131&h=159&c=7&r=0&o=5&pid=1.7",
        "country": "USA"
    },
    {
        "name": "Knopf Publishing Group",
        "totalItems": 229,
        "allBooksLink": "https://books.google.com/books?q=Knopf+Publishing+Group",
        "buyLink": "Unavailable on Google Play Store",
        "averageRating": 3.8,
        "imageLink": "https://upload.wikimedia.org/wikipedia/commons/5/5c/Knopf_Borzoi_1920.png",
        "country": "UK"
    },
    {
        "name": "BoD - Books on Demand",
        "totalItems": 335,
        "allBooksLink": "https://books.google.com/books?q=BoD+\u00e2\u20ac\u201c+Books+on+Demand",
        "buyLink": "Unavailable on Google Play Store",
        "averageRating": 0,
        "imageLink": "https://tse3.mm.bing.net/th/id/OIP.8AqgQ2Kthfa6RZ5hmIPSJQHaLH?w=133&h=200&c=7&r=0&o=5&pid=1.7",
        "country": "USA"
    },
    {
        "name": "Simon and Schuster",
        "totalItems": 260,
        "allBooksLink": "https://books.google.com/books?q=Simon+and+Schuster",
        "buyLink": "Unavailable on Google Play Store",
        "averageRating": 0,
        "imageLink": "https://encrypted-tbn0.gstatic.com/images?q=tbn:ANd9GcRI6T082r2i2lQaQVoGw2iVe4-UfDdCPLCVqw&s",
        "country": "Spain"
    },
    {
        "name": "St. Martin's Press",
        "totalItems": 366,
        "allBooksLink": "https://books.google.com/books?q=St.+Martin's+Press",
        "buyLink": "Unavailable on Google Play Store",
        "averageRating": 4.0,
        "imageLink": "https://tse2.mm.bing.net/th/id/OIP.nueSDS4Kp5TJ_zUtt6WFnwHaF6?w=146&h=134&c=7&r=0&o=5&pid=1.7",
        "country": "USA"
    },
    {
        "name": "New York Review of Books",
        "totalItems": 0,
        "allBooksLink": "https://books.google.com/books?q=New+York+Review+of+Books",
        "buyLink": "Unavailable on Google Play Store",
        "averageRating": 4.1,
        "imageLink": "https://tse3.mm.bing.net/th/id/OIP.qh0tfB8i9HhOVUk17VKekwHaKF?w=143&h=195&c=7&r=0&o=5&pid=1.7",
        "country": "Germany"
    },
    {
        "name": "CreateSpace",
        "totalItems": 200,
        "allBooksLink": "https://books.google.com/books?q=CreateSpace",
        "buyLink": "Unavailable on Google Play Store",
        "averageRating": 0,
        "imageLink": "https://tse4.mm.bing.net/th/id/OIP.A54jr9eVKZoZnUVFMcLXGAAAAA?w=144&h=150&c=7&r=0&o=5&pid=1.7",
        "country": "USA"
    },
    {
        "name": "Random House Value Pub",
        "totalItems": 204,
        "allBooksLink": "https://books.google.com/books?q=Random+House+Value+Pub",
        "buyLink": "Unavailable on Google Play Store",
        "averageRating": 4.0,
        "imageLink": "https://tse1.mm.bing.net/th/id/OIP.kAaTImahqsC1kTv4ihCSUQHaDK?w=286&h=149&c=7&r=0&o=5&pid=1.7",
        "country": "UK"
    },
    {
        "name": "Dramatic Publishing",
        "totalItems": 0,
        "allBooksLink": "https://books.google.com/books?q=Dramatic+Publishing",
        "buyLink": "Unavailable on Google Play Store",
        "averageRating": 4.3,
        "imageLink": "https://tse1.mm.bing.net/th/id/OIP.nFqSO_yXxFNVAexeZAuBMwHaE8?w=162&h=180&c=7&r=0&o=5&pid=1.7",
        "country": "USA"
    },
    {
        "name": "Yale University Press",
        "totalItems": 304,
        "allBooksLink": "https://books.google.com/books?q=Yale+University+Press",
        "buyLink": "Unavailable on Google Play Store",
        "averageRating": 3.6,
        "imageLink": "https://tse4.mm.bing.net/th/id/OIP.b71IktZzF18V6_YCU4jPogHaH-?w=148&h=180&c=7&r=0&o=5&pid=1.7",
        "country": "USA"
    },
    {
        "name": "Penguin",
        "totalItems": 200,
        "allBooksLink": "https://books.google.com/books?q=Penguin",
        "buyLink": "Unavailable on Google Play Store",
        "averageRating": 3.6,
        "imageLink": "https://tse4.mm.bing.net/th/id/OIP.qqYdkJeqHCJIysLA_89LUgHaHa?w=181&h=181&c=7&r=0&o=5&pid=1.7",
        "country": "USA"
    },
    {
        "name": "The Nation Co. LP",
        "totalItems": 0,
        "allBooksLink": "https://books.google.com/books?q=The+Nation+Co.+LP",
        "buyLink": "https://play.google.com/store/books/details?id=otUZnb1hFW4C&rdid=book-otUZnb1hFW4C&rdot=1&source=gbs_api",
        "averageRating": 4.8,
        "imageLink": "https://cdn-images.himalayas.app/cclxy96uo16mn9qm7tsxznt79h4u",
        "country": "Germany"
    },
    {
        "name": "Anchor",
        "totalItems": 200,
        "allBooksLink": "https://books.google.com/books?q=Anchor",
        "buyLink": "https://play.google.com/store/books/details?id=nYYxAQAAMAAJ&rdid=book-nYYxAQAAMAAJ&rdot=1&source=gbs_api",
        "averageRating": 4.2,
        "imageLink": "https://global.penguinrandomhouse.com/wp-content/uploads/2021/01/vintage-anchor-logo-thumb.png",
        "country": "USA"
    },
    {
        "name": "Oxford University Press, USA",
        "totalItems": 0,
        "allBooksLink": "https://books.google.com/books?q=Oxford+University+Press,+USA",
        "buyLink": "Unavailable on Google Play Store",
        "averageRating": 0,
        "imageLink": "https://tse4.mm.bing.net/th/id/OIP.wYGgJzNH139l4Cy83qQlFQAAAA?w=322&h=130&c=7&r=0&o=5&pid=1.7",
        "country": "UK"
    },
    {
        "name": "Faber & Faber",
        "totalItems": 184,
        "allBooksLink": "https://books.google.com/books?q=Faber+&+Faber",
        "buyLink": "https://play.google.com/store/books/details?id=9GWUBgAAQBAJ&rdid=book-9GWUBgAAQBAJ&rdot=1&source=gbs_api",
        "averageRating": 4.6,
        "imageLink": "https://tse3.mm.bing.net/th/id/OIP.kdNFlQPc_TYZatYcbvdXoQHaB9?w=329&h=92&c=7&r=0&o=5&pid=1.7",
        "country": "Canada"
    },
    {
        "name": "Hachette UK",
        "totalItems": 20,
        "allBooksLink": "https://books.google.com/books?q=Hachette+UK",
        "buyLink": "Unavailable on Google Play Store",
        "averageRating": 0,
        "imageLink": "https://tse3.mm.bing.net/th/id/OIP.fWUpJxetd5NeL-JrlY7t_wHaD-?w=299&h=180&c=7&r=0&o=5&pid=1.7",
        "country": "USA"
    },
    {
        "name": "London : Tate Gallery Publications",
        "totalItems": 126,
        "allBooksLink": "https://books.google.com/books?q=London+:+Tate+Gallery+Publications",
        "buyLink": "Unavailable on Google Play Store",
        "averageRating": 0,
        "imageLink": "https://bookshop-uk-prod-images.storage.googleapis.com/spree/affiliate_profiles/profile_images/31/original/tatePROFILE.jpg?1602606508",
        "country": "UK"
    },
    {
        "name": "Springer",
        "totalItems": 200,
        "allBooksLink": "https://books.google.com/books?q=Springer",
        "buyLink": "Unavailable on Google Play Store",
        "averageRating": 3.7,
        "imageLink": "https://tse1.mm.bing.net/th/id/OIP.v4d-qq3ZqcBNRMJT-FMBmgHaCC?w=263&h=96&c=7&r=0&o=5&pid=1.7",
        "country": "USA"
    },
    {
        "name": "Del Rey",
        "totalItems": 0,
        "allBooksLink": "https://books.google.com/books?q=Del+Rey",
        "buyLink": "Unavailable on Google Play Store",
        "averageRating": 3.5,
        "imageLink": "https://upload.wikimedia.org/wikipedia/commons/thumb/c/c3/Del_Rey_logo.svg/225px-Del_Rey_logo.svg.png",
        "country": "USA"
    },
    {
        "name": "Bantam",
        "totalItems": 0,
        "allBooksLink": "https://books.google.com/books?q=Bantam",
        "buyLink": "Unavailable on Google Play Store",
        "averageRating": 3.4,
        "imageLink": "https://www.randomhousebooks.com/wp-content/uploads/2022/01/Bantam_blk_2022-199x300.png",
        "country": "USA"
    },
    {
        "name": "Harvill Secker",
        "totalItems": 0,
        "allBooksLink": "https://books.google.com/books?q=Harvill+Secker",
        "buyLink": "Unavailable on Google Play Store",
        "averageRating": 0,
        "imageLink": "https://wp.penguin.co.uk/wp-content/uploads/2022/05/310-Harvill20Secker20logo20black_.png",
        "country": "USA"
    },
    {
        "name": "Rowman & Littlefield",
        "totalItems": 200,
        "allBooksLink": "https://books.google.com/books?q=Rowman+&+Littlefield",
        "buyLink": "Unavailable on Google Play Store",
        "averageRating": 0,
        "imageLink": "https://tse3.mm.bing.net/th/id/OIP.ERwDYfvKVFZHLPv0ReU0SwHaHa?w=151&h=180&c=7&r=0&o=5&pid=1.7",
        "country": "UK"
    },
    {
        "name": "Dark Horse Comics",
        "totalItems": 0,
        "allBooksLink": "https://books.google.com/books?q=Dark+Horse+Comics",
        "buyLink": "Unavailable on Google Play Store",
        "averageRating": 4.7,
        "imageLink": "https://tse4.mm.bing.net/th/id/OIP.i1646tbe6-FigI_cruQluwHaK6?w=115&h=180&c=7&r=0&o=5&pid=1.7",
        "country": "USA"
    },
    {
        "name": "Blackstone Publishing",
        "totalItems": 278,
        "allBooksLink": "https://books.google.com/books?q=Blackstone+Publishing",
        "buyLink": "https://play.google.com/store/books/details?id=3ReDDwAAQBAJ&rdid=book-3ReDDwAAQBAJ&rdot=1&source=gbs_api",
        "averageRating": 4.3,
        "imageLink": "https://tse3.mm.bing.net/th/id/OIP.L3YtbKWxPNepjOfCZF5RXAHaE-?w=239&h=180&c=7&r=0&o=5&pid=1.7",
        "country": "Canada"
    },
    {
        "name": "Cosimo, Inc.",
        "totalItems": 34,
        "allBooksLink": "https://books.google.com/books?q=Cosimo,+Inc.",
        "buyLink": "https://play.google.com/store/books/details?id=8jmYj3nS_m4C&rdid=book-8jmYj3nS_m4C&rdot=1&source=gbs_api",
        "averageRating": 2.0,
        "imageLink": "https://tse3.mm.bing.net/th/id/OIP.LSN7l1AagEWSvaJF_wgHtAAAAA?w=129&h=150&c=7&r=0&o=5&pid=1.7",
        "country": "UK"
    },
    {
        "name": "London : British Library",
        "totalItems": 455,
        "allBooksLink": "https://books.google.com/books?q=London+:+British+Library",
        "buyLink": "https://play.google.com/store/books/details?id=tOnhAAAAMAAJ&rdid=book-tOnhAAAAMAAJ&rdot=1&source=gbs_api",
        "averageRating": 0,
        "imageLink": "https://tse4.mm.bing.net/th/id/OIP.LgYHCZDCjza1Ersp0P1oKgHaE7?w=236&h=180&c=7&r=0&o=5&pid=1.7",
        "country": "USA"
    },
    {
        "name": "Northwestern University Press",
        "totalItems": 235,
        "allBooksLink": "https://books.google.com/books?q=Northwestern+University+Press",
        "buyLink": "Unavailable on Google Play Store",
        "averageRating": 3.9,
        "imageLink": "https://dhjhkxawhe8q4.cloudfront.net/northwestern-uni-press-wp/wp-content/uploads/2021/09/03192917/logo-blogs.png",
        "country": "USA"
    },
    {
        "name": "HarperCollins UK",
        "totalItems": 305,
        "allBooksLink": "https://books.google.com/books?q=HarperCollins+UK",
        "buyLink": "Unavailable on Google Play Store",
        "averageRating": 3.9,
        "imageLink": "https://tse2.mm.bing.net/th/id/OIP.yEkNWiqj8n-HAeWLOUVMugHaHa?w=195&h=195&c=7&r=0&o=5&pid=1.7",
        "country": "USA"
    },
    {
        "name": "Scholastic Inc.",
        "totalItems": 0,
        "allBooksLink": "https://books.google.com/books?q=Scholastic+Inc.",
        "buyLink": "Unavailable on Google Play Store",
        "averageRating": 4.4,
        "imageLink": "https://tse2.mm.bing.net/th/id/OIP.moSIUaGeTMqpn9FC9fDraQHaHa?w=156&h=180&c=7&r=0&o=5&pid=1.7",
        "country": "USA"
    },
    {
        "name": "University Press of Kentucky",
        "totalItems": 0,
        "allBooksLink": "https://books.google.com/books?q=University+Press+of+Kentucky",
        "buyLink": "https://play.google.com/store/books/details?id=NO2gpVGaRGwC&rdid=book-NO2gpVGaRGwC&rdot=1&source=gbs_api",
        "averageRating": 4.2,
        "imageLink": "https://tse1.mm.bing.net/th/id/OIP.BUCQ3xZqz0xyMKMJISjuYwHaGD?w=182&h=180&c=7&r=0&o=5&pid=1.7",
        "country": "USA"
    },
    {
        "name": "Pottermore Publishing",
        "totalItems": 10,
        "allBooksLink": "https://books.google.com/books?q=Pottermore+Publishing",
        "buyLink": "https://play.google.com/store/books/details?id=5byZDwAAQBAJ&rdid=book-5byZDwAAQBAJ&rdot=1&source=gbs_api",
        "averageRating": 4.6,
        "imageLink": "https://encrypted-tbn0.gstatic.com/images?q=tbn:ANd9GcTAxjj0kpu5hqSpGMJI2_nR_wN-vcHSaNxa_w&s",
        "country": "USA"
    },
    {
        "name": "Univ. Press of Mississippi",
        "totalItems": 176,
        "allBooksLink": "https://books.google.com/books?q=Univ.+Press+of+Mississippi",
        "buyLink": "Unavailable on Google Play Store",
        "averageRating": 0,
        "imageLink": "https://tse1.mm.bing.net/th/id/OIP.JXpafL_uPlBnAv-oWLo0oAHaHM?w=156&h=180&c=7&r=0&o=5&pid=1.7",
        "country": "USA"
    },
    {
        "name": "David R. Godine Publisher",
        "totalItems": 151,
        "allBooksLink": "https://books.google.com/books?q=David+R.+Godine+Publisher",
        "buyLink": "Unavailable on Google Play Store",
        "averageRating": 4.1,
        "imageLink": "https://godine.com/cdn/shop/files/godine-logo_d4443e48-92c9-4342-8461-f49b978a0f64.png?height=628&pad_color=fff&v=1714763358&width=1200",
        "country": "UK"
    },
    {
        "name": "Weidenfeld & Nicolson",
        "totalItems": 200,
        "allBooksLink": "https://books.google.com/books?q=Weidenfeld+&+Nicolson",
        "buyLink": "Unavailable on Google Play Store",
        "averageRating": 0,
        "imageLink": "https://upload.wikimedia.org/wikipedia/en/8/8b/Wn-logo-2014.jpg",
        "country": "India"
    },
    {
        "name": "Sterling Publishing Company",
        "totalItems": 448,
        "allBooksLink": "https://books.google.com/books?q=Sterling+Publishing+Company",
        "buyLink": "Unavailable on Google Play Store",
        "averageRating": 0,
        "imageLink": "https://tse2.mm.bing.net/th/id/OIP.JEely5x0wFhW6qGe4Jb1HwAAAA?w=268&h=85&c=7&r=0&o=5&pid=1.7",
        "country": "USA"
    },
    {
        "name": "Seven Stories Press",
        "totalItems": 217,
        "allBooksLink": "https://books.google.com/books?q=Seven+Stories+Press",
        "buyLink": "Unavailable on Google Play Store",
        "averageRating": 4.5,
        "imageLink": "https://tse1.mm.bing.net/th/id/OIP.D6dRT4LjpR_W6saHwOuGsAHaE8?w=242&h=180&c=7&r=0&o=5&pid=1.7",
        "country": "UK"
    },
    {
        "name": "Open Road Media",
        "totalItems": 221,
        "allBooksLink": "https://books.google.com/books?q=Open+Road+Media",
        "buyLink": "Unavailable on Google Play Store",
        "averageRating": 4.0,
        "imageLink": "https://tse2.mm.bing.net/th/id/OIP.5g_A-wBpCgRgjK9F-k1x-QHaCU?w=267&h=109&c=7&r=0&o=5&pid=1.7",
        "country": "USA"
    },
    {
        "name": "Oxford [Oxfordshire] ; New York : Oxford University Press",
        "totalItems": 435,
        "allBooksLink": "https://books.google.com/books?q=Oxford+[Oxfordshire]+;+New+York+:+Oxford+University+Press",
        "buyLink": "Unavailable on Google Play Store",
        "averageRating": 4.2,
        "imageLink": "https://tse2.mm.bing.net/th/id/OIP.zgw0J1iyAstw6aaI4C0PowHaEg?w=224&h=180&c=7&r=0&o=5&pid=1.7",
        "country": "USA"
    },
    {
        "name": "Bantam Classics",
        "totalItems": 358,
        "allBooksLink": "https://books.google.com/books?q=Bantam+Classics",
        "buyLink": "Unavailable on Google Play Store",
        "averageRating": 0,
        "imageLink": "https://tse2.mm.bing.net/th/id/OIP._HCHxy8Wo_AB3F92IIslHgHaHO?w=163&h=180&c=7&r=0&o=5&pid=1.7",
        "country": "UK"
    },
    {
        "name": "Applewood Books",
        "totalItems": 0,
        "allBooksLink": "https://books.google.com/books?q=Applewood+Books",
        "buyLink": "Unavailable on Google Play Store",
        "averageRating": 0,
        "imageLink": "https://tse1.mm.bing.net/th/id/OIP.LFin1cIA7CUzj5QYbZGTgAHaCv?w=329&h=129&c=7&r=0&o=5&pid=1.7",
        "country": "USA"
    },
    {
        "name": "Cambridge University Press",
        "totalItems": 309,
        "allBooksLink": "https://books.google.com/books?q=Cambridge+University+Press",
        "buyLink": "Unavailable on Google Play Store",
        "averageRating": 3.6,
        "imageLink": "https://tse1.mm.bing.net/th/id/OIP.xt8B-yaozw_wdyuLqYeiIgHaBR?w=289&h=62&c=7&r=0&o=5&pid=1.7",
        "country": "USA"
    },
    {
        "name": "Fredericton, N.B. : York Press",
        "totalItems": 2,
        "allBooksLink": "https://books.google.com/books?q=Fredericton,+N.B.+:+York+Press",
        "buyLink": "Unavailable on Google Play Store",
        "averageRating": 0,
        "imageLink": "https://tse1.mm.bing.net/th/id/OIP.oN0oUa1LWb5vHcVBBO_vtAHaE-?w=249&h=180&c=7&r=0&o=5&pid=1.7",
        "country": "USA"
    },
    {
        "name": "Princeton, N.J. : Ontario Review Press",
        "totalItems": 90,
        "allBooksLink": "https://books.google.com/books?q=Princeton,+N.J.+:+Ontario+Review+Press",
        "buyLink": "https://play.google.com/store/books/details?id=92pIAAAAYAAJ&rdid=book-92pIAAAAYAAJ&rdot=1&source=gbs_api",
        "averageRating": 3.8,
        "imageLink": "https://tse4.mm.bing.net/th/id/OIP.jV9szIXvYEsth0S2-q9spwHaEc?w=297&h=180&c=7&r=0&o=5&pid=1.7",
        "country": "UK"
    },
    {
        "name": "Library of America",
        "totalItems": 259,
        "allBooksLink": "https://books.google.com/books?q=Library+of+America",
        "buyLink": "Unavailable on Google Play Store",
        "averageRating": 4.5,
        "imageLink": "https://tse4.mm.bing.net/th/id/OIP.WUmi9zbiC-DcjIjwAbRtQgHaEK?w=268&h=180&c=7&r=0&o=5&pid=1.7",
        "country": "USA"
    },
    {
        "name": "Bibliotech Press",
        "totalItems": 12,
        "allBooksLink": "https://books.google.com/books?q=Bibliotech+Press",
        "buyLink": "https://play.google.com/store/books/details?id=0vEXAAAAIAAJ&rdid=book-0vEXAAAAIAAJ&rdot=1&source=gbs_api",
        "averageRating": 3.0,
        "imageLink": "https://tse2.mm.bing.net/th/id/OIP.UdC0ey9c3PJWTZkocCK65AHaBK?w=286&h=59&c=7&r=0&o=5&pid=1.7",
        "country": "USA"
    },
    {
        "name": "HarperCollins Publishers",
        "totalItems": 0,
        "allBooksLink": "https://books.google.com/books?q=HarperCollins+Publishers",
        "buyLink": "Unavailable on Google Play Store",
        "averageRating": 4.0,
        "imageLink": "https://tse1.mm.bing.net/th/id/OIP.-lOA1SarxREj6c-aurG9DQEdDa?w=255&h=195&c=7&r=0&o=5&pid=1.7",
        "country": "UK"
    },
    {
        "name": "Ohio State University Press",
        "totalItems": 262,
        "allBooksLink": "https://books.google.com/books?q=Ohio+State+University+Press",
        "buyLink": "Unavailable on Google Play Store",
        "averageRating": 3.0,
        "imageLink": "https://tse2.mm.bing.net/th/id/OIP.TH4MQdM3aZGU3GKQl5N08QAAAA?w=288&h=180&c=7&r=0&o=5&pid=1.7",
        "country": "USA"
    },
    {
        "name": "James Press",
        "totalItems": 0,
        "allBooksLink": "https://books.google.com/books?q=James+Press",
        "buyLink": "Unavailable on Google Play Store",
        "averageRating": 4.0,
        "imageLink": "https://tse3.mm.bing.net/th/id/OIP.CpSB7E0Gg70Rt8mf38oG8QHaHa?w=106&h=180&c=7&r=0&o=5&pid=1.7",
        "country": "USA"
    },
    {
        "name": "Melville House",
        "totalItems": 161,
        "allBooksLink": "https://books.google.com/books?q=Melville+House",
        "buyLink": "Unavailable on Google Play Store",
        "averageRating": 0,
        "imageLink": "https://tse1.mm.bing.net/th/id/OIP.-OxpL68JBP4Vr-r6TvlcXAHaEA?w=330&h=180&c=7&r=0&o=5&pid=1.7",
        "country": "USA"
    },
    {
        "name": "Xist Publishing",
        "totalItems": 92,
        "allBooksLink": "https://books.google.com/books?q=Xist+Publishing",
        "buyLink": "Unavailable on Google Play Store",
        "averageRating": 5.0,
        "imageLink": "https://tse1.mm.bing.net/th/id/OIP.aII9YhJy2otvZf_lqt7dugHaC8?w=229&h=180&c=7&r=0&o=5&pid=1.7",
        "country": "UK"
    },
    {
        "name": "University of Michigan Press",
        "totalItems": 298,
        "allBooksLink": "https://books.google.com/books?q=University+of+Michigan+Press",
        "buyLink": "Unavailable on Google Play Store",
        "averageRating": 0,
        "imageLink": "https://tse2.mm.bing.net/th/id/OIP.AgOIKLxQJrW5M0lMWe37KgHaEo?w=227&h=180&c=7&r=0&o=5&pid=1.7",
        "country": "USA"
    },
    {
        "name": "Standard Ebooks",
        "totalItems": 59,
        "allBooksLink": "https://books.google.com/books?q=Standard+Ebooks",
        "buyLink": "https://play.google.com/store/books/details?id=WsGqEAAAQBAJ&rdid=book-WsGqEAAAQBAJ&rdot=1&source=gbs_api",
        "averageRating": 0,
        "imageLink": "https://tse2.mm.bing.net/th/id/OIP.WybeJERoREdH3ljmPY2GRQHaB3?w=333&h=88&c=7&r=0&o=5&pid=1.7",
        "country": "USA"
    },
    {
        "name": "Beacon Press",
        "totalItems": 0,
        "allBooksLink": "https://books.google.com/books?q=Beacon+Press",
        "buyLink": "Unavailable on Google Play Store",
        "averageRating": 4.5,
        "imageLink": "https://www.beacon.org/App_Themes/Beacon/images/logo.png",
        "country": "USA"
    },
    {
        "name": "Grove/Atlantic, Inc.",
        "totalItems": 0,
        "allBooksLink": "https://books.google.com/books?q=Grove/Atlantic,+Inc.",
        "buyLink": "Unavailable on Google Play Store",
        "averageRating": 0,
        "imageLink": "https://tse3.mm.bing.net/th/id/OIP.1-wmaHApll-AgjKYmJUkIwAAAA?w=194&h=16&c=7&r=0&o=5&pid=1.7",
        "country": "UK"
    },
    {
        "name": "The New Press",
        "totalItems": 281,
        "allBooksLink": "https://books.google.com/books?q=The+New+Press",
        "buyLink": "Unavailable on Google Play Store",
        "averageRating": 1.0,
        "imageLink": "https://tse1.mm.bing.net/th/id/OIP.zNUSFf1aeErMeOFY9s1--QHaHa?w=173&h=180&c=7&r=0&o=5&pid=1.7",
        "country": "USA"
    },
    {
        "name": "Penguin Books",
        "totalItems": 215,
        "allBooksLink": "https://books.google.com/books?q=Penguin+Books",
        "buyLink": "https://play.google.com/store/books/details?id=y3zcEAAAQBAJ&rdid=book-y3zcEAAAQBAJ&rdot=1&source=gbs_api",
        "averageRating": 4.8,
        "imageLink": "https://tse4.mm.bing.net/th/id/OIP.lO7MBtesuJ1Doz7AUlxn9QHaHY?w=168&h=180&c=7&r=0&o=5&pid=1.7",
        "country": "UK"
    },
    {
        "name": "Delphi Classics",
        "totalItems": 277,
        "allBooksLink": "https://books.google.com/books?q=Delphi+Classics",
        "buyLink": "https://play.google.com/store/books/details?id=DJ3WDwAAQBAJ&rdid=book-DJ3WDwAAQBAJ&rdot=1&source=gbs_api",
        "averageRating": 0,
        "imageLink": "https://tse3.mm.bing.net/th/id/OIP.pGJWhyJuC_HnIdx5tMuCcQHaEg?w=265&h=180&c=7&r=0&o=5&pid=1.7",
        "country": "USA"
    },
    {
        "name": "Read Books Ltd",
        "totalItems": 0,
        "allBooksLink": "https://books.google.com/books?q=Read+Books+Ltd",
        "buyLink": "Unavailable on Google Play Store",
        "averageRating": 0,
        "imageLink": "https://tse4.mm.bing.net/th/id/OIP.2-h5fPNoVgLnryhBxFd1UQHaDH?w=317&h=147&c=7&r=0&o=5&pid=1.7",
        "country": "USA"
    },
    {
        "name": "Bloomsbury Harry Potter",
        "totalItems": 0,
        "allBooksLink": "https://books.google.com/books?q=Bloomsbury+Harry+Potter",
        "buyLink": "Unavailable on Google Play Store",
        "averageRating": 4.3,
        "imageLink": "https://tse2.mm.bing.net/th/id/OIP.oCRpzxqhN9ry1nbqYiMKbQHaFV?w=168&h=141&c=7&r=0&o=5&pid=1.7",
        "country": "USA"
    },
    {
        "name": "Vintage",
        "totalItems": 200,
        "allBooksLink": "https://books.google.com/books?q=Vintage",
        "buyLink": "Unavailable on Google Play Store",
        "averageRating": 4.0,
        "imageLink": "https://tse1.mm.bing.net/th/id/OIP.qFmjV8PLRs68nPNp_f2rvQHaE7?w=257&h=180&c=7&r=0&o=5&pid=1.7",
        "country": "UK"
    },
    {
        "name": "Belknap Press",
        "totalItems": 198,
        "allBooksLink": "https://books.google.com/books?q=Belknap+Press",
        "buyLink": "Unavailable on Google Play Store",
        "averageRating": 0,
        "imageLink": "https://www.hup.harvard.edu/img/637e41c2-fc79-49f5-9d70-47c5458f3586/time5.png?fm=jpg&q=80&fit=max&crop=1260%2C1261%2C0%2C0&w=1000",
        "country": "USA"
    },
    {
        "name": "University of Georgia Press",
        "totalItems": 0,
        "allBooksLink": "https://books.google.com/books?q=University+of+Georgia+Press",
        "buyLink": "Unavailable on Google Play Store",
        "averageRating": 2.5,
        "imageLink": "https://tse4.mm.bing.net/th/id/OIP.RNc2j8kz4Kx9Dtmyw4UKogHaCp?w=283&h=125&c=7&r=0&o=5&pid=1.7",
        "country": "UK"
    },
    {
        "name": "Penguin UK",
        "totalItems": 0,
        "allBooksLink": "https://books.google.com/books?q=Penguin+UK",
        "buyLink": "https://play.google.com/store/books/details?id=Hg-TDwAAQBAJ&rdid=book-Hg-TDwAAQBAJ&rdot=1&source=gbs_api",
        "averageRating": 4.0,
        "imageLink": "https://www.publishers.org.uk/wp-content/uploads/2020/02/PRH-UK-logo-RGB.png",
        "country": "UK"
    },
    {
        "name": "New Directions Publishing",
        "totalItems": 425,
        "allBooksLink": "https://books.google.com/books?q=New+Directions+Publishing",
        "buyLink": "Unavailable on Google Play Store",
        "averageRating": 4.3,
        "imageLink": "https://tse2.mm.bing.net/th/id/OIP.-eHXT5UU5VgVbAtfju1HlwHaHa?w=170&h=180&c=7&r=0&o=5&pid=1.7",
        "country": "USA"
    },
    {
        "name": "Indiana University Press",
        "totalItems": 270,
        "allBooksLink": "https://books.google.com/books?q=Indiana+University+Press",
        "buyLink": "Unavailable on Google Play Store",
        "averageRating": 0,
        "imageLink": "https://tse3.mm.bing.net/th/id/OIP.C5wBBMhJUbWtqCMZlnpOIQHaE8?w=274&h=183&c=7&r=0&o=5&pid=1.7",
        "country": "UK"
    },
    {
        "name": "Fourth Estate",
        "totalItems": 253,
        "allBooksLink": "https://books.google.com/books?q=Fourth+Estate",
        "buyLink": "https://play.google.com/store/books/details?id=l_Jk8fdesWkC&rdid=book-l_Jk8fdesWkC&rdot=1&source=gbs_api",
        "averageRating": 0,
        "imageLink": "https://tse4.mm.bing.net/th/id/OIP.iRvyYAj9bfw4ZKACi-2d2gHaFP?w=215&h=180&c=7&r=0&o=5&pid=1.7",
        "country": "UK"
    },
    {
        "name": "Modern Library",
        "totalItems": 305,
        "allBooksLink": "https://books.google.com/books?q=Modern+Library",
        "buyLink": "Unavailable on Google Play Store",
        "averageRating": 5.0,
        "imageLink": "https://tse1.mm.bing.net/th/id/OIP.w7JQxowZbrC4QFJlFA9HogHaEW?w=310&h=182&c=7&r=0&o=5&pid=1.7",
        "country": "USA"
    },
    {
        "name": "London : Macmillan",
        "totalItems": 0,
        "allBooksLink": "https://books.google.com/books?q=London+:+Macmillan",
        "buyLink": "Unavailable on Google Play Store",
        "averageRating": 0,
        "imageLink": "https://www.englishuk.com/uploads/corporate_members_40.jpg",
        "country": "UK"
    },
    {
        "name": "Canterbury Classics",
        "totalItems": 226,
        "allBooksLink": "https://books.google.com/books?q=Canterbury+Classics",
        "buyLink": "https://play.google.com/store/books/details?id=1DIeEAAAQBAJ&rdid=book-1DIeEAAAQBAJ&rdot=1&source=gbs_api",
        "averageRating": 5.0,
        "imageLink": "https://www.canterburyclassicsbooks.com/wp-content/uploads/2018/11/logo-canterbury-classics.png",
        "country": "USA"
    },
    {
        "name": "Joe Books Ltd",
        "totalItems": 33,
        "allBooksLink": "https://books.google.com/books?q=Joe+Books+Ltd",
        "buyLink": "Unavailable on Google Play Store",
        "averageRating": 0,
        "imageLink": "https://tse1.mm.bing.net/th/id/OIP.CITXTA5vDeXh_O7SmLpfWQAAAA?w=170&h=180&c=7&r=0&o=5&pid=1.7",
        "country": "USA"
    },
    {
        "name": "Little, Brown",
        "totalItems": 0,
        "allBooksLink": "https://books.google.com/books?q=Little,+Brown",
        "buyLink": "Unavailable on Google Play Store",
        "averageRating": 5.0,
        "imageLink": "https://tse1.mm.bing.net/th/id/OIP.SvrfOUZ_KVwjZ7r7SOtQ8QAAAA?w=115&h=150&c=7&r=0&o=5&pid=1.7",
        "country": "USA"
    },
    {
        "name": "Lumbreras Classics Books",
        "totalItems": 0,
        "allBooksLink": "https://books.google.com/books?q=Lumbreras+Classics+Books",
        "buyLink": "Unavailable on Google Play Store",
        "averageRating": 0,
        "imageLink": "https://tse3.mm.bing.net/th/id/OIP.MOqedNej-xeQU6yjpt2YTAAAAA?w=134&h=182&c=7&r=0&o=5&pid=1.7",
        "country": "USA"
    },
    {
        "name": "Sterling Publishing (NY)",
        "totalItems": 348,
        "allBooksLink": "https://books.google.com/books?q=Sterling+Publishing+(NY)",
        "buyLink": "Unavailable on Google Play Store",
        "averageRating": 4.7,
        "imageLink": "https://tse2.mm.bing.net/th/id/OIP.JEely5x0wFhW6qGe4Jb1HwAAAA?w=299&h=85&c=7&r=0&o=5&pid=1.7",
        "country": "USA"
    },
    {
        "name": "Harper Collins",
        "totalItems": 398,
        "allBooksLink": "https://books.google.com/books?q=Harper+Collins",
        "buyLink": "Unavailable on Google Play Store",
        "averageRating": 3.5,
        "imageLink": "https://tse4.mm.bing.net/th/id/OIP.ra4TIvlLsYZXj9AzmgpfUQHaMy?w=115&h=180&c=7&r=0&o=5&pid=1.7",
        "country": "USA"
    },
    {
        "name": "W. W. Norton & Company",
        "totalItems": 411,
        "allBooksLink": "https://books.google.com/books?q=W.+W.+Norton+&+Company",
        "buyLink": "Unavailable on Google Play Store",
        "averageRating": 0,
        "imageLink": "https://tse4.mm.bing.net/th/id/OIP.OModT8443QO5t80ZfoZH0gAAAA?w=185&h=114&c=7&r=0&o=5&pid=1.7",
        "country": "USA"
    },
    {
        "name": "Houghton Mifflin Harcourt",
        "totalItems": 426,
        "allBooksLink": "https://books.google.com/books?q=Houghton+Mifflin+Harcourt",
        "buyLink": "Unavailable on Google Play Store",
        "averageRating": 5.0,
        "imageLink": "https://tse1.mm.bing.net/th/id/OIP.MqSO4MwVGjRP3T20tWzkHQHaBx?w=339&h=83&c=7&r=0&o=5&pid=1.7",
        "country": "USA"
    },
    {
        "name": "Everyman's Library",
        "totalItems": 29,
        "allBooksLink": "https://books.google.com/books?q=Everyman's+Library",
        "buyLink": "Unavailable on Google Play Store",
        "averageRating": 5.0,
        "imageLink": "https://tse2.mm.bing.net/th/id/OIP.seh565nCo5Qmou2Q53b-EQHaBS?w=334&h=62&c=7&r=0&o=5&pid=1.7",
        "country": "USA"
    },
    {
        "name": "Wings",
        "totalItems": 200,
        "allBooksLink": "https://books.google.com/books?q=Wings",
        "buyLink": "Unavailable on Google Play Store",
        "averageRating": 4.2,
        "imageLink": "https://tse3.mm.bing.net/th/id/OIP.sMhgYSU5ZKdDVkVMUUu2awHaFD?w=206&h=180&c=7&r=0&o=5&pid=1.7",
        "country": "USA"
    },
    {
        "name": "Citadel Press",
        "totalItems": 190,
        "allBooksLink": "https://books.google.com/books?q=Citadel+Press",
        "buyLink": "Unavailable on Google Play Store",
        "averageRating": 4.2,
        "imageLink": "https://dhjhkxawhe8q4.cloudfront.net/kensington-books-publishing-wp/wp-content/uploads/sites/3/2020/05/20203548/CITADEL-LOGO-large-e1590007082258.jpg",
        "country": "USA"
    },
    {
        "name": "Farrar, Straus and Giroux",
        "totalItems": 263,
        "allBooksLink": "https://books.google.com/books?q=Farrar,+Straus+and+Giroux",
        "buyLink": "Unavailable on Google Play Store",
        "averageRating": 4.7,
        "imageLink": "https://upload.wikimedia.org/wikipedia/commons/f/f5/Farrar%2C_Straus_and_Giroux_75th_anniversary_logo.svg",
        "country": "USA"
    },
    {
        "name": "Harvard University Press",
        "totalItems": 277,
        "allBooksLink": "https://books.google.com/books?q=Harvard+University+Press",
        "buyLink": "Unavailable on Google Play Store",
        "averageRating": 0,
        "imageLink": "https://tse4.mm.bing.net/th/id/OIP.Nmr_A8FV3iFK61oMhwgVYwHaE8?w=219&h=180&c=7&r=0&o=5&pid=1.7",
        "country": "USA"
    },
    {
        "name": "University of Chicago Press",
        "totalItems": 481,
        "allBooksLink": "https://books.google.com/books?q=University+of+Chicago+Press",
        "buyLink": "Unavailable on Google Play Store",
        "averageRating": 0,
        "imageLink": "https://tse3.mm.bing.net/th/id/OIP.Ypm_uzVNyXZFctRScLfeHwHaE8?w=205&h=180&c=7&r=0&o=5&pid=1.7",
        "country": "USA"
    },
    {
        "name": "Picador",
        "totalItems": 200,
        "allBooksLink": "https://books.google.com/books?q=Picador",
        "buyLink": "Unavailable on Google Play Store",
        "averageRating": 4.2,
        "imageLink": "https://bookshop-uk-prod-images.storage.googleapis.com/spree/affiliate_profiles/banner_images/6109/original/Large_Picador_Logo_hi_res.jpg?1612518709",
        "country": "Canada"
    },
    {
        "name": "Chartwell Books",
        "totalItems": 172,
        "allBooksLink": "https://books.google.com/books?q=Chartwell+Books",
        "buyLink": "https://play.google.com/store/books/details?id=x17bEAAAQBAJ&rdid=book-x17bEAAAQBAJ&rdot=1&source=gbs_api",
        "averageRating": 3.6,
        "imageLink": "https://www.quarto.com/public/images/imprints/1985/Chartwell_logo1985.jpg",
        "country": "USA"
    },
    {
        "name": "Wordsworth Editions",
        "totalItems": 173,
        "allBooksLink": "https://books.google.com/books?q=Wordsworth+Editions",
        "buyLink": "Unavailable on Google Play Store",
        "averageRating": 3.9,
        "imageLink": "https://www.wordsworthbookstore.com/sites/wordsworthbookstore.com/files/WordsWorth%20logo-cmyk_0.jpg",
        "country": "USA"
    },
    {
        "name": "Anthem Press",
        "totalItems": 0,
        "allBooksLink": "https://books.google.com/books?q=Anthem+Press",
        "buyLink": "Unavailable on Google Play Store",
        "averageRating": 0,
        "imageLink": "https://www.publishers.org.uk/wp-content/uploads/2020/02/Anthem-Press_Logo-with-text_Website-1-002.jpg",
        "country": "USA"
    },
    {
        "name": "Zondervan",
        "totalItems": 166,
        "allBooksLink": "https://books.google.com/books?q=Zondervan",
        "buyLink": "https://play.google.com/store/books/details?id=S4MZREX03u0C&rdid=book-S4MZREX03u0C&rdot=1&source=gbs_api",
        "averageRating": 3.9,
        "imageLink": "https://tse4.mm.bing.net/th/id/OIP.JFkwJpydlplPSnejwN9pOgAAAA?w=124&h=43&c=7&r=0&o=5&pid=1.7",
        "country": "USA"
    },
    {
        "name": "Good Press",
        "totalItems": 242,
        "allBooksLink": "https://books.google.com/books?q=Good+Press",
        "buyLink": "https://play.google.com/store/books/details?id=M6DgEAAAQBAJ&rdid=book-M6DgEAAAQBAJ&rdot=1&source=gbs_api",
        "averageRating": 4.3,
        "imageLink": "https://tse4.mm.bing.net/th/id/OIP.Dko0lKldFusjSh5Y0lAsOwHaHf?w=158&h=180&c=7&r=0&o=5&pid=1.7",
        "country": "USA"
    },
    {
        "name": "Alfred A. Knopf",
        "totalItems": 0,
        "allBooksLink": "https://books.google.com/books?q=Alfred+A.+Knopf",
        "buyLink": "Unavailable on Google Play Store",
        "averageRating": 3.6,
        "imageLink": "https://tse2.mm.bing.net/th/id/OIP.mFTyIZZF5X9HbqOkiLgljAAAAA?w=152&h=141&c=7&r=0&o=5&pid=1.7",
        "country": "USA"
    },
    {
        "name": "JHU Press",
        "totalItems": 20,
        "allBooksLink": "https://books.google.com/books?q=JHU+Press",
        "buyLink": "Unavailable on Google Play Store",
        "averageRating": 3.0,
        "imageLink": "https://www.nsta.org/sites/default/files/inline-images/JHUP_logo_blue_285.png",
        "country": "USA"
    },
    {
        "name": "University of Illinois Press",
        "totalItems": 386,
        "allBooksLink": "https://books.google.com/books?q=University+of+Illinois+Press",
        "buyLink": "https://play.google.com/store/books/details?id=IAZxAAAAIAAJ&rdid=book-IAZxAAAAIAAJ&rdot=1&source=gbs_api",
        "averageRating": 0,
        "imageLink": "https://tse1.mm.bing.net/th/id/OIP.fSBqXIEea84tuWyI7vdkDgHaDN?w=274&h=180&c=7&r=0&o=5&pid=1.7",
        "country": "USA"
    },
    {
        "name": "BookCaps Study Guides",
        "totalItems": 0,
        "allBooksLink": "https://books.google.com/books?q=BookCaps+Study+Guides",
        "buyLink": "Unavailable on Google Play Store",
        "averageRating": 0,
        "imageLink": "https://tse2.mm.bing.net/th/id/OIP.A-BjC80DyEkYOiIPyTscsgHaDe?w=291&h=164&c=7&r=0&o=5&pid=1.7",
        "country": "USA"
    },
    {
        "name": "Barnes & Noble Publishing",
        "totalItems": 200,
        "allBooksLink": "https://books.google.com/books?q=Barnes+&+Noble+Publishing",
        "buyLink": "Unavailable on Google Play Store",
        "averageRating": 0,
        "imageLink": "https://www.selfpublishingreview.com/wp-content/uploads/2018/10/Screen-Shot-2018-10-17-at-21.01.40.png",
        "country": "USA"
    },
    {
        "name": "Createspace Independent Publishing Platform",
        "totalItems": 407,
        "allBooksLink": "https://books.google.com/books?q=Createspace+Independent+Publishing+Platform",
        "buyLink": "Unavailable on Google Play Store",
        "averageRating": 4.0,
        "imageLink": "https://tse2.mm.bing.net/th/id/OIP.2l9JPxIcZFATRKZv6eyu0QHaD5?w=334&h=180&c=7&r=0&o=5&pid=1.7",
        "country": "USA"
    }
]